<?xml version="1.0" encoding="UTF-8"?>
<svg width="14px" height="28px" viewBox="0 0 14 28" version="1.1" xmlns="http://www.w3.org/2000/svg" xmlns:xlink="http://www.w3.org/1999/xlink">
    <!-- Generator: Sketch 47.1 (45422) - http://www.bohemiancoding.com/sketch -->
    <title>ic_facebook</title>
    <desc>Created with Sketch.</desc>
    <defs></defs>
    <g id="Symbols" stroke="none" stroke-width="1" fill="none" fill-rule="evenodd">
        <g id="Fundo" transform="translate(-231.000000, -966.000000)" fill="#25479B">
            <g id="Botões---Elenco-e-Agente" transform="translate(153.000000, 800.000000)">
                <g id="Sou-Elenco">
                    <g id="Facebook" transform="translate(53.000000, 153.000000)">
                        <path d="M38.3870128,17.6964104 L39,13.5119316 C39,13.5119316 36.5829778,12.8918845 33.6830573,13.0165653 C27.7121267,13.2707222 27.9186492,17.9807785 27.9186492,17.9807785 L27.9186492,22.0947648 L25,22.0947648 L25,26.3502158 L27.9186492,26.3502158 L27.9186492,40.6055449 L33.6830573,40.6055449 L33.6830573,33.4778804 L33.6830573,26.3502158 L38.0630559,26.3502158 L38.3996674,22.0947648 L33.6830573,22.0947648 L33.6830573,19.0089154 C33.6830573,16.3143719 38.3870128,17.6964104 38.3870128,17.6964104 Z" id="ic_facebook"></path>
                    </g>
                </g>
            </g>
        </g>
    </g>
</svg>