<?xml version="1.0" encoding="UTF-8"?>
<svg width="34px" height="34px" viewBox="0 0 34 34" version="1.1" xmlns="http://www.w3.org/2000/svg" xmlns:xlink="http://www.w3.org/1999/xlink">
    <!-- Generator: Sketch 47.1 (45422) - http://www.bohemiancoding.com/sketch -->
    <title>Group</title>
    <desc>Created with Sketch.</desc>
    <defs></defs>
    <g id="Page-1" stroke="none" stroke-width="1" fill="none" fill-rule="evenodd">
        <g id="Gerenciar-Vagas" transform="translate(-849.000000, -310.000000)">
            <g id="Job---01" transform="translate(92.000000, 183.000000)">
                <g id="Infos" transform="translate(29.000000, 26.000000)">
                    <g id="Jobs-Aceitos" transform="translate(730.000000, 98.000000)">
                        <g id="Group" transform="translate(0.000000, 5.000000)">
                            <circle id="Oval" stroke="#FFFFFF" stroke-width="3" fill="#00BD9C" cx="15" cy="15" r="15"></circle>
                            <polygon id="Path" fill="#FFFFFF" points="8.4 14.9886671 10.3566996 13.0319675 13.5311472 16.2050313 20.3801063 9.6 22.2720005 11.5609924 13.5311472 20.1184304"></polygon>
                        </g>
                    </g>
                </g>
            </g>
        </g>
    </g>
</svg>